%YAML 1.1
%TAG !u! tag:unity3d.com,2011:
--- !u!1045 &1
EditorBuildSettings:
  m_ObjectHideFlags: 0
  serializedVersion: 2
  m_Scenes:
  - enabled: 1
    path: Assets/Scenes/main_menu.unity
    guid: afd9422195b283647a1e2bd11196fb11
  - enabled: 1
    path: Assets/Scenes/scene_main.unity
    guid: bb6a860caa9cf644d8c28055932e7a9d
  - enabled: 1
    path: Assets/Scenes/Wheel_Fortune.unity
    guid: 7d6a3bdb643581c40b189b0366e3997e
  m_configObjects: {}
